R ekosisteminde veri birleştirme (joining)
…
glimpse(dunya_ozgur)

## Observations: 208
## Variables: 3
## $ ülke  <chr> "Abkhazia", "Afghanistan", "Albania", "Algeria", "Andorr...
## $ durum <chr> "Yarı Özgür", "Özgür Değil", "Yarı Özgür", "Özgür Değil"...
## $ puan  <dbl> 41, 26, 68, 35, 96, 26, 83, 83, 45, 98, 94, 12, 91, 12, ...

1.left_join ve right_join

ibb_secim1 <- ibb_akp %>% left_join(ibb_chp, by ="ilçe")

ibb_secim1

## # A tibble: 39 x 3
##    ilçe          akp   chp
##    <chr>       <dbl> <dbl>
##  1 zeyti·nburnu  47.1  52  
##  2 üsküdar      44.8  54.1
##  3 ümrani·ye     51.6  47.5
##  4 tuzla        45.6  53.1
##  5 sultangazi·   57.6  41.3
##  6 sultanbeyli·  65.8  32.8
##  7 şi·şli·        25.9  73.3
##  8 si·li·vri·      37.5  61.8
##  9 şi·le         49.3  49.2
## 10 sariyer      38.3  60.8
## # ... with 29 more rows

ibb_secim2<- ibb_akp %>% right_join(ibb_chp, by ="ilçe")
ibb_secim2

## # A tibble: 39 x 3
##    ilçe           akp   chp
##    <chr>        <dbl> <dbl>
##  1 adalar        28.6  70.9
##  2 arnavutköy    60.2  38.7
##  3 ataşehi·r      39.3  59.8
##  4 avcilar       37.3  62  
##  5 bağcilar      56.5  42.4
##  6 bahçeli·evler  47.2  51.8
##  7 bakirköy      20.1  79.2
##  8 başakşehi·r    51.2  47.5
##  9 bayrampaşa    48.5  50.6
## 10 beşi·ktaş      15.7  83.7
## # ... with 29 more rows
…
2.inner_join, anti_join ve full_join

yeni_veri1 <- yolsuzluk_endeks %>% inner_join(dunya_ozgur, by = "ülke")
yeni_veri1

## # A tibble: 169 x 5
##    ülke        bölge  skor durum       puan
##    <chr>       <chr> <dbl> <chr>      <dbl>
##  1 Denmark     WE/EU    88 Özgür         97
##  2 New Zealand AP       87 Özgür         98
##  3 Finland     WE/EU    85 Özgür        100
##  4 Singapore   AP       85 Yarı Özgür    52
##  5 Sweden      WE/EU    85 Özgür        100
##  6 Switzerland WE/EU    85 Özgür         96
##  7 Norway      WE/EU    84 Özgür        100
##  8 Netherlands WE/EU    82 Özgür         99
##  9 Canada      AME      81 Özgür         99
## 10 Luxembourg  WE/EU    81 Özgür         98
## # ... with 159 more rows
…
yeni_veri3 <- dunya_ozgur %>% anti_join(yolsuzluk_endeks, by = "ülke")
yeni_veri3

## # A tibble: 39 x 3
##    ülke                durum        puan
##    <chr>               <chr>       <dbl>
##  1 Abkhazia            Yarı Özgür     41
##  2 Andorra             Özgür          96
##  3 Antigua and Barbuda Özgür          83
##  4 Belize              Özgür          86
##  5 Brunei              Özgür Değil    28
##  6 Cape Verde          Özgür          90
##  7 Congo (Brazzaville) Özgür Değil    21
##  8 Congo (Kinshasa)    Özgür Değil    17
##  9 Fiji                Yarı Özgür     59
## 10 Gaza Strip          Özgür Değil    12
## # ... with 29 more rows

yeni_veri4 <- yolsuzluk_endeks %>% full_join(dunya_ozgur, by = "ülke")
yeni_veri4

## # A tibble: 219 x 5
##    ülke        bölge  skor durum       puan
##    <chr>       <chr> <dbl> <chr>      <dbl>
##  1 Denmark     WE/EU    88 Özgür         97
##  2 New Zealand AP       87 Özgür         98
##  3 Finland     WE/EU    85 Özgür        100
##  4 Singapore   AP       85 Yarı Özgür    52
##  5 Sweden      WE/EU    85 Özgür        100
##  6 Switzerland WE/EU    85 Özgür         96
##  7 Norway      WE/EU    84 Özgür        100
##  8 Netherlands WE/EU    82 Özgür         99
##  9 Canada      AME      81 Özgür         99
## 10 Luxembourg  WE/EU    81 Özgür         98
## # ... with 209 more rows
